{
	"appId": "com.flasskamp.subz",
	"appName": "Subz",
	"bundledWebRuntime": false,
	"npmClient": "npm",
	"webDir": "www",
	"plugins": {
		"SplashScreen": {
			"backgroundColor": "#1f1f1f",
			"spinnerColor": "#18e4c9",
			"showSpinner": true,
			"launchAutoHide": false
		}
	},
	"cordova": {}
}
